{
  "dev": {
    "name": "Dev",
    "label": "section::dev"
  },
  "ops": {
    "name": "Ops",
    "label": "section::ops"
  },
  "sec": {
    "name": "Sec",
    "label": "section::sec"
  },
  "modelops": {
    "name": "ModelOps",
    "label": "section::modelops"
  },
  "analytics": {
    "name": "Analytics",
    "label": "section::analytics"
  },
  "growth": {
    "name": "Growth",
    "label": "section::growth"
  },
  "fulfillment": {
    "name": "Fulfillment",
    "label": "section::fulfillment"
  },
  "enablement": {
    "name": "Enablement",
    "label": "section::enablement"
  },
  "platforms": {
    "name": "SaaS Platforms",
    "label": "section::platforms"
  },
  "seg": {
    "name": "Single-Engineer Groups",
    "label": "section::seg"
  }
}
